\relax 
\ifx\hyper@anchor\@undefined
\global \let \oldcontentsline\contentsline
\gdef \contentsline#1#2#3#4{\oldcontentsline{#1}{#2}{#3}}
\global \let \oldnewlabel\newlabel
\gdef \newlabel#1#2{\newlabelxx{#1}#2}
\gdef \newlabelxx#1#2#3#4#5#6{\oldnewlabel{#1}{{#2}{#3}}}
\AtEndDocument{\let \contentsline\oldcontentsline
\let \newlabel\oldnewlabel}
\else
\global \let \hyper@last\relax 
\fi

\@writefile{toc}{\contentsline {section}{\numberline {1}Introduction}{2}{section.1}}
\@writefile{toc}{\contentsline {subsection}{\numberline {1.1}Background}{2}{subsection.1.1}}
\@writefile{toc}{\contentsline {subsection}{\numberline {1.2}Installation}{2}{subsection.1.2}}
\@writefile{toc}{\contentsline {subsection}{\numberline {1.3}\texttt  {DataGeNET.Dis object}}{2}{subsection.1.3}}
\@writefile{toc}{\contentsline {section}{\numberline {2}DisGeNET and \texttt  {disgenet2r}}{4}{section.2}}
\@writefile{lot}{\contentsline {table}{\numberline {1}{\ignorespaces Source databases included in DisGeNET}}{4}{table.1}}
\newlabel{tab:disgenet_databases}{{1}{4}{Source databases included in DisGeNET\relax }{table.1}{}}
\@writefile{toc}{\contentsline {section}{\numberline {3}Retrieve gene-disease associations (GDAs) from disgenet2r}{4}{section.3}}
\@writefile{toc}{\contentsline {subsection}{\numberline {3.1}Disease Mapping}{4}{subsection.3.1}}
\@writefile{toc}{\contentsline {subsubsection}{\numberline {3.1.1}Using a string as query}{4}{subsubsection.3.1.1}}
\@writefile{toc}{\contentsline {subsubsection}{\numberline {3.1.2}Ontology to Disease and vice-versa}{5}{subsubsection.3.1.2}}
\@writefile{toc}{\contentsline {subsubsection}{\numberline {3.1.3}Ontology class to Disease and vice-versa}{5}{subsubsection.3.1.3}}
\@writefile{toc}{\contentsline {subsubsection}{\numberline {3.1.4}Phenotype to Disease and vice-versa}{6}{subsubsection.3.1.4}}
\@writefile{toc}{\contentsline {subsection}{\numberline {3.2}Using disease as a query}{7}{subsection.3.2}}
\@writefile{toc}{\contentsline {subsubsection}{\numberline {3.2.1}Using as a query a single disease}{7}{subsubsection.3.2.1}}
\@writefile{toc}{\contentsline {subsubsection}{\numberline {3.2.2}Plotting results of a Single Disease Query}{8}{subsubsection.3.2.2}}
\@writefile{lof}{\contentsline {figure}{\numberline {1}{\ignorespaces Network visualizing GDA given a disease}}{9}{figure.1}}
\newlabel{fig:networkDisease}{{1}{9}{Network visualizing GDA given a disease\relax }{figure.1}{}}
\@writefile{lof}{\contentsline {figure}{\numberline {2}{\ignorespaces Network visualizing GDA given a disease grouped by Panther class}}{10}{figure.2}}
\newlabel{fig:networkPanther}{{2}{10}{Network visualizing GDA given a disease grouped by Panther class\relax }{figure.2}{}}
\@writefile{toc}{\contentsline {subsubsection}{\numberline {3.2.3}Using as a query a list of diseases}{10}{subsubsection.3.2.3}}
\@writefile{lot}{\contentsline {table}{\numberline {2}{\ignorespaces Disease list selected for illustrate}}{10}{table.2}}
\newlabel{tab:disease_list}{{2}{10}{Disease list selected for illustrate\relax }{table.2}{}}
\@writefile{toc}{\contentsline {subsubsection}{\numberline {3.2.4}Ploting the results of the query using a list of disease}{11}{subsubsection.3.2.4}}
\@writefile{lof}{\contentsline {figure}{\numberline {3}{\ignorespaces Network visualizing GDA given a disease list grouped}}{12}{figure.3}}
\newlabel{fig:networkDiseaseMultiple}{{3}{12}{Network visualizing GDA given a disease list grouped\relax }{figure.3}{}}
\@writefile{lof}{\contentsline {figure}{\numberline {4}{\ignorespaces Heatmap visualizing GDA given a disease list}}{13}{figure.4}}
\newlabel{fig:heatmapDiseaseMultiple}{{4}{13}{Heatmap visualizing GDA given a disease list\relax }{figure.4}{}}
\@writefile{lof}{\contentsline {figure}{\numberline {5}{\ignorespaces Heatmap visualizing GDA given a disease list and grouped by the panther class}}{14}{figure.5}}
\newlabel{fig:heatmapDiseaseMultiplePanther}{{5}{14}{Heatmap visualizing GDA given a disease list and grouped by the panther class\relax }{figure.5}{}}
\@writefile{toc}{\contentsline {subsection}{\numberline {3.3}Using genes as a query}{14}{subsection.3.3}}
\@writefile{toc}{\contentsline {subsubsection}{\numberline {3.3.1}Using as a query a single gene}{15}{subsubsection.3.3.1}}
\@writefile{toc}{\contentsline {subsubsection}{\numberline {3.3.2}Ploting the results of a Single Gene Query}{16}{subsubsection.3.3.2}}
\@writefile{lof}{\contentsline {figure}{\numberline {6}{\ignorespaces Network visualizing GDA given a gene}}{17}{figure.6}}
\newlabel{fig:networkGene}{{6}{17}{Network visualizing GDA given a gene\relax }{figure.6}{}}
\@writefile{lof}{\contentsline {figure}{\numberline {7}{\ignorespaces Network visualizing GDA given a gene grouped by MESH class}}{18}{figure.7}}
\newlabel{fig:networkGeneMESH}{{7}{18}{Network visualizing GDA given a gene grouped by MESH class\relax }{figure.7}{}}
\@writefile{toc}{\contentsline {subsubsection}{\numberline {3.3.3}Using as a query a list of genes}{18}{subsubsection.3.3.3}}
\@writefile{toc}{\contentsline {subsubsection}{\numberline {3.3.4}Ploting the results of the query using a list of genes}{19}{subsubsection.3.3.4}}
\@writefile{lof}{\contentsline {figure}{\numberline {8}{\ignorespaces Network visualizing GDA given a gene list grouped}}{20}{figure.8}}
\newlabel{fig:networkGeneMultiple}{{8}{20}{Network visualizing GDA given a gene list grouped\relax }{figure.8}{}}
\@writefile{lof}{\contentsline {figure}{\numberline {9}{\ignorespaces Heatmap visualizing GDA given a gene list}}{21}{figure.9}}
\newlabel{fig:heatmapGeneMultiple}{{9}{21}{Heatmap visualizing GDA given a gene list\relax }{figure.9}{}}
\@writefile{lof}{\contentsline {figure}{\numberline {10}{\ignorespaces Heatmap visualizing GDA given a gene list}}{22}{figure.10}}
\newlabel{fig:heatmapGeneMultipleMESH}{{10}{22}{Heatmap visualizing GDA given a gene list\relax }{figure.10}{}}
\@writefile{toc}{\contentsline {section}{\numberline {4}Retrieve disease-disease associations from disgenet2r}{22}{section.4}}
\@writefile{toc}{\contentsline {subsection}{\numberline {4.1}Using disease as a query}{22}{subsection.4.1}}
\@writefile{toc}{\contentsline {subsection}{\numberline {4.2}Plotting associated disease network}{23}{subsection.4.2}}
\@writefile{lof}{\contentsline {figure}{\numberline {11}{\ignorespaces Network visualizing disease-disease association given a single disease}}{24}{figure.11}}
\newlabel{fig:diseasediseaseAssoc}{{11}{24}{Network visualizing disease-disease association given a single disease\relax }{figure.11}{}}
\@writefile{lof}{\contentsline {figure}{\numberline {12}{\ignorespaces Barplot visualizing the top 20 disease-disease association and the Jaccard Index}}{25}{figure.12}}
\newlabel{fig:barplotDisDis}{{12}{25}{Barplot visualizing the top 20 disease-disease association and the Jaccard Index\relax }{figure.12}{}}
\@writefile{toc}{\contentsline {subsection}{\numberline {4.3}Comorbidity Analysis}{25}{subsection.4.3}}
\@writefile{lof}{\contentsline {figure}{\numberline {13}{\ignorespaces Comorbidity network}}{26}{figure.13}}
\newlabel{fig:comorbidityNet}{{13}{26}{Comorbidity network\relax }{figure.13}{}}
\@writefile{lof}{\contentsline {figure}{\numberline {14}{\ignorespaces Venn diagram}}{27}{figure.14}}
\newlabel{fig:vennDiagram}{{14}{27}{Venn diagram\relax }{figure.14}{}}
\@writefile{lof}{\contentsline {figure}{\numberline {15}{\ignorespaces Pathway heatmap of the common genes between two diseases}}{28}{figure.15}}
\newlabel{fig:pathHeatmap2dis}{{15}{28}{Pathway heatmap of the common genes between two diseases\relax }{figure.15}{}}
